<svg width="21" height="21" viewBox="0 0 21 21" fill="none" xmlns="http://www.w3.org/2000/svg">
<path d="M0.310176 7.978C1.70276 2.3487 7.39433 -1.08301 13.0221 0.310091C18.6509 1.70266 22.0827 7.39311 20.6901 13.0213C19.2976 18.6495 13.6064 22.0824 7.97816 20.6893C2.3504 19.2973 -1.08347 13.6057 0.310176 7.978Z" fill="#EF3827"/>
<path d="M10.4606 1.92114L12.4189 7.94339H18.7533L13.6296 11.667L15.5858 17.693L10.4606 13.9689L5.3369 17.693L7.29523 11.667L2.16943 7.94339H8.50437L10.4606 1.92114Z" fill="#FFD203"/>
</svg>
